# Copyright 2019-2020 Hussain KH <hussain.rachana@gmail.com>
# Copyright 2020 Rajeesh KV <rajeeshknambiar@gmail.com>
# This file is licensed under OFL 1.1.
#

----- 4 Chrs Joining --------------------------

ഗ്ദ്ധ്ര		ഗ്ദ്ധ്രു		ഗ്ദ്ധ്രൂ		
സ്റ്റ്ര		സ്റ്റ്രു		സ്റ്റ്രൂ		

----- 3 Chrs Joining --------------------------

ക്ക്ര		ക്ക്രു		ക്ക്രൂ		
ക്ട്ര		ക്ട്രു		ക്ട്രൂ		
ക്ത്ര		ക്ത്രു		ക്ത്രൂ		
ക്ഷ്ണ		ക്ഷ്ണു		ക്ഷ്ണൂ		
ക്ഷ്മ		ക്ഷ്മു		ക്ഷ്മൂ		ക്ഷ്മൃ		
ക്റ്റ 		ക്റ്റു		ക്റ്റൂ		
ഗ്ദ്ധ		ഗ്ദ്ധു		ഗ്ദ്ധൂ		ഗ്ദ്ധൃ		
ച്ഛ്ര		ച്ഛ്രു		ച്ഛ്രൂ		
ണ്ട്ര		ണ്ട്രു		ണ്ട്രൂ		
ണ്ഡ്ര		ണ്ഡ്രു		ണ്ഡ്രൂ		
ത്ത്ര		ത്ത്രു		ത്ത്രൂ		
ത്സ്ഥ		ത്സ്ഥു		ത്സ്ഥൂ		ത്സ്ഥൃ		
ത്സ്ന		ത്സ്നു		ത്സ്നൂ		
ത്സ്മ		ത്സ്മു		ത്സ്മൂ		ത്സ്മൃ		
ത്സ്ര		ത്സ്രു		ത്സ്രൂ		
ദ്ധ്ന		ദ്ധ്നു		ദ്ധ്നൂ		
ദ്ധ്മ		ദ്ധ്മു		ദ്ധ്മൂ		ദ്ധ്മൃ		
ദ്ധ്ര		ദ്ധ്രു		ദ്ധ്രൂ		
ന്ത്ര		ന്ത്രു		ന്ത്രൂ		
ന്ദ്ര		ന്ദ്രു		ന്ദ്രൂ		
ന്ധ്ര		ന്ധ്രു		ന്ധ്രൂ		
ന്ന്ര		ന്ന്രു		ന്ന്രൂ		
ന്മ്ര		ന്മ്രു		ന്മ്രൂ		
പ്സ്ര		പ്സ്രു		പ്സ്രൂ		
ഫ്റ്റ 		ഫ്റ്റു		ഫ്റ്റൂ		
മ്പ്ര		മ്പ്രു		മ്പ്രൂ		
യ്ക്ക		യ്ക്കു		യ്ക്കൂ		
യ്ത്ത		യ്ത്തു		യ്ത്തൂ		യ്ത്തൃ		
ല്ക്ക		ല്ക്കു		ല്ക്കൂ		
ല്ത്ത		ല്ത്തു		ല്ത്തൂ		
ശ്ശ്ര		ശ്ശ്രു		ശ്ശ്രൂ		
ഷ്ക്ക		ഷ്ക്കു		ഷ്ക്കൂ		ഷ്ക്കൃ		
ഷ്ക്ര		ഷ്ക്രു		ഷ്ക്രൂ		
ഷ്പ്ര		ഷ്പ്രു		ഷ്പ്രൂ		
ഷ്ട്ര		ഷ്ട്രു		ഷ്ട്രൂ		
സ്ക്ക		സ്ക്കു		സ്ക്കൂ		സ്ക്കൃ		
സ്ക്ര		സ്ക്രു		സ്ക്രൂ		
സ്ട്ര		സ്ട്രു		സ്ട്രൂ		
സ്ത്ര		സ്ത്രു		സ്ത്രൂ		
സ്പ്ര		സ്പ്രു		സ്പ്രൂ		
സ്സ്ര		സ്സ്രു		സ്സ്രൂ		
സ്റ്റ		സ്റ്റു		സ്റ്റൂ		
ഴ്ക്ക		ഴ്ക്കു		ഴ്ക്കൂ		
ഴ്ത്ത		ഴ്ത്തു		ഴ്ത്തൂ		
ഴ്ന്ന		ഴ്ന്നു		ഴ്ന്നൂ		

----- 2 Chrs Joining --------------------------

ക്ക		ക്കു		ക്കൂ		ക്കൃ		
ക്ട		ക്ടു		ക്ടൂ		
ക്ണ		ക്ണു		ക്ണൂ		
ക്ത		ക്തു		ക്തൂ		ക്തൃ		ക്തൄ
ക്ന		ക്നു		ക്നൂ		
ക്മ		ക്മു		ക്മൂ		
ക്ര 		ക്രു		ക്രൂ		
ക്ല		ക്ലു		ക്ലൂ		
ക്ഷ		ക്ഷു		ക്ഷൂ		ക്ഷൃ		
ക്സ		ക്സു		ക്സൂ		ക്സൃ		
ഗ്ഗ		ഗ്ഗു		ഗ്ഗൂ		ഗ്ഗൃ		
ഗ്ഘ		ഗ്ഘു		ഗ്ഘൂ		ഗ്ഘൃ		
ഗ്ദ		ഗ്ദു		ഗ്ദൂ		ഗ്ദൃ		
ഗ്ന		ഗ്നു		ഗ്നൂ		
ഗ്മ		ഗ്മു		ഗ്മൂ		
ഗ്ര		ഗ്രു		ഗ്രൂ		
ഗ്ല		ഗ്ലു		ഗ്ലൂ		
ഘ്ന		ഘ്നു		ഘ്നൂ		
ഘ്ര 		ഘ്രു		ഘ്രൂ		
ങ്ക		ങ്കു		ങ്കൂ		ങ്കൃ		
ങ്ങ		ങ്ങു		ങ്ങൂ		
ച്ച		ച്ചു		ച്ചൂ		
ച്ഛ		ച്ഛു		ച്ഛൂ		ച്ഛൃ		
ജ്ജ		ജ്ജു		ജ്ജൂ		ജ്ജൃ		
ജ്ഞ		ജ്ഞു		ജ്ഞൂ		
ജ്ര		ജ്രു		ജ്രൂ		
ഞ്ച		ഞ്ചു		ഞ്ചൂ		ഞ്ചൃ		
ഞ്ഛ		ഞ്ഛു		ഞ്ഛൂ		ഞ്ഛൃ		
ഞ്ജ		ഞ്ജു		ഞ്ജൂ		
ഞ്ഞ		ഞ്ഞു		ഞ്ഞൂ		
ട്ട		ട്ടു		ട്ടൂ		
ട്ര		ട്രു		ട്രൂ		
ഡ്ഡ		ഡ്ഡു		ഡ്ഡൂ		
ഡ്ഢ		ഡ്ഢു		ഡ്ഢൂ		
ഡ്മ		ഡ്മു		ഡ്മൂ		ഡ്മൃ		
ഡ്ര		ഡ്രു		ഡ്രൂ		
ഢ്ര		ഢ്രു		ഢ്രൂ		
ണ്ട		ണ്ടു		ണ്ടൂ		
ണ്ഠ 		
ണ്ഡ		ണ്ഡു		ണ്ഡൂ		ണ്ഡൃ		
ണ്ഢ		ണ്ഢു		ണ്ഢൂ		ണ്ഢൃ		
ണ്ണ		ണ്ണു		ണ്ണൂ		
ണ്മ		ണ്മു		ണ്മൂ		
ത്ത		ത്തു		ത്തൂ		ത്തൃ		ത്തൄ
ത്ഥ		ത്ഥു		ത്ഥൂ		ത്ഥൃ		
ത്ന 		ത്നു		ത്നൂ		
ത്ഭ		ത്ഭു		ത്ഭൂ		ത്ഭൃ		
ത്മ		ത്മു		ത്മൂ		ത്മൃ		
ത്ര		ത്രു		ത്രൂ		
ത്ല		ത്ലു		ത്ലൂ		
ത്സ		ത്സു		ത്സൂ		ത്സൃ		ത്സൄ
ഥ്ന		ഥ്നു		ഥ്നൂ		
ഥ്മ		ഥ്മു		ഥ്മൂ		ഥ്മൃ		
ദ്ദ		ദ്ദു		ദ്ദൂ		ദ്ദൃ		ദ്ദൄ
ദ്ധ		ദ്ധു		ദ്ധൂ		ദ്ധൃ		ദ്ധൄ
ദ്ര 		ദ്രു		ദ്രൂ		
ധ്ന		ധ്നു		ധ്നൂ		
ധ്മ		ധ്മു		ധ്മൂ		ധ്മൃ		
ധ്ര		ധ്രു		ധ്രൂ		
ന്ത		ന്തു		ന്തൂ		ന്തൃ		ന്തൄ
ന്ഥ		ന്ഥു		ന്ഥൂ		ന്ഥൃ		ന്ഥൄ
ന്ദ		ന്ദു		ന്ദൂ		ന്ദൃ		
ന്ധ		ന്ധു		ന്ധൂ		ന്ധൃ		
ന്ന		ന്നു		ന്നൂ		ന്നൃ		
ന്മ		ന്മു		ന്മൂ		ന്മൃ		
ന്ര 		ന്രു		ന്രൂ		
ന്റ		ന്റു		ന്റൂ		
പ്ട		പ്ടു		പ്ടൂ		
പ്ത		പ്തു		പ്തൂ		പ്തൃ		പ്തൄ
പ്ന		പ്നു		പ്നൂ		
പ്പ		പ്പു		പ്പൂ		പ്പൃ		
പ്ഫ		പ്ഫു		പ്ഫൂ		
പ്ര 		പ്രു		പ്രൂ		
പ്ല		പ്ലു		പ്ലൂ		
പ്സ		പ്സു		പ്സൂ		പ്സൃ		
ഫ്ക		ഫ്കു		ഫ്കൂ		
ഫ്ട		ഫ്ടു		ഫ്ടൂ		
ഫ്ന		ഫ്നു		ഫ്നൂ		
ഫ്പ		ഫ്പു		ഫ്പൂ		
ഫ്മ		ഫ്മു		ഫ്മൂ		
ഫ്ര 		ഫ്രു		ഫ്രൂ		
ഫ്ല		ഫ്ലു		ഫ്ലൂ		
ഫ്സ		ഫ്സു		ഫ്സൂ		ഫ്സൃ		
ബ്ഗ		ബ്ഗു		ബ്ഗൂ		ബ്ഗൃ		
ബ്ജ		ബ്ജു		ബ്ജൂ		ബ്ജൃ		
ബ്ദ		ബ്ദു		ബ്ദൂ		ബ്ദൃ		
ബ്ധ		ബ്ധു		ബ്ധൂ		ബ്ധൃ		ബ്ധൄ
ബ്ന		ബ്നു		ബ്നൂ		
ബ്ബ		ബ്ബു		ബ്ബൂ		
ബ്ഭ 		ബ്ഭു		ബ്ഭൂ		
ബ്ര		ബ്രു		ബ്രൂ		
ബ്ല		ബ്ലു		ബ്ലൂ		
ഭ്ര 		ഭ്രു		ഭ്രൂ		
മ്ന		മ്നു		മ്നൂ		മ്നൃ		
മ്പ		മ്പു		മ്പൂ		മ്പൃ		
മ്മ		മ്മു		മ്മൂ		മ്മൃ		
മ്ര 		മ്രു		മ്രൂ		
മ്ല		മ്ലു		മ്ലൂ		
യ്ക		യ്കു		യ്കൂ		യ്കൃ		
യ്ച		യ്ചു		യ്ചൂ		
യ്ത		യ്തു		യ്തൂ		യ്തൃ		
യ്ന		യ്നു		യ്നൂ		
യ്പ		യ്പു		യ്പൂ		യ്പൃ		
യ്മ		യ്മു		യ്മൂ		യ്മൃ		
യ്യ		യ്യു		യ്യൂ		
യ്വ		യ്‌വ		യ ്വ
ല്ക		ല്കു		ല്കൂ		ല്കൃ		
ല്ഗ		ല്ഗു		ല്ഗൂ		ല്ഗൃ		
ല്ച		ല്ചു		ല്ചൂ		
ല്ത		ല്തു		ല്തൂ		ല്തൃ		
ല്പ		ല്പു		ല്പൂ		
ല്ഫ 		ല്ഫു		ല്ഫൂ		
ല്ബ 		ല്ബു		ല്ബൂ		
ല്മ		ല്മു		ല്മൂ		
ല്ല		ല്ലു		ല്ലൂ		
വ്ര		വ്രു		വ്രൂ		
വ്ല		വ്ലു		വ്ലൂ		
വ്വ		വ്വു		വ്വൂ		
ശ്ച		ശ്ചു		ശ്ചൂ		ശ്ചൃ		
ശ്ഛ		ശ്ഛു		ശ്ഛൂ		ശ്ഛൃ		
ശ്ന		ശ്നു		ശ്നൂ		
ശ്മ		ശ്മു		ശ്മൂ		ശ്മൃ		
ശ്ര 		ശ്രു		ശ്രൂ		
ശ്ല		ശ്ലു		ശ്ലൂ		
ശ്ശ		ശ്ശു		ശ്ശൂ		ശ്ശൃ		
ഷ്ക		ഷ്കു		ഷ്കൂ		ഷ്കൃ		
ഷ്ട		ഷ്ടു		ഷ്ടൂ		ഷ്ടൃ		ഷ്ടൄ
ഷ്ഠ		ഷ്ഠു		ഷ്ഠൂ		
ഷ്ണ		ഷ്ണു		ഷ്ണൂ		
ഷ്പ		ഷ്പു		ഷ്പൂ		ഷ്പൃ		
ഷ്ഫ		ഷ്ഫു		ഷ്ഫൂ		
ഷ്മ		ഷ്മു		ഷ്മൂ		
ഷ്ര		ഷ്രു		ഷ്രൂ		
സ്ക		സ്കു		സ്കൂ		സ്കൃ		
സ്ഖ		സ്ഖു		സ്ഖൂ		
സ്ട		സ്ടു		സ്ടൂ		
സ്ത		സ്തു		സ്തൂ		സ്തൃ		സ്തൄ
സ്ന		സ്നു		സ്നൂ		
സ്പ		സ്പു		സ്പൂ		സ്പൃ		
സ്ഫ		സ്ഫു		സ്ഫൂ		
സ്മ		സ്മു		സ്മൂ		സ്മൃ		
സ്ര 		സ്രു		സ്രൂ		
സ്ല		സ്ലു		സ്ലൂ		
സ്സ		സ്സു		സ്സൂ		സ്സൃ		
ഹ്ന		ഹ്നു		ഹ്നൂ		
ഹ്മ		ഹ്മു		ഹ്മൂ		ഹ്മൃ		
ഹ്ര 		ഹ്രു		ഹ്രൂ		
ഹ്ല		ഹ്ലു		ഹ്ലൂ		
ള്ള		ള്ളു		ള്ളൂ		
ഴ്ക		ഴ്കു		ഴ്കൂ		
ഴ്ച		ഴ്ചു		ഴ്ചൂ		
ഴ്ത		ഴ്തു		ഴ്തൂ		
ഴ്ന		ഴ്നു		ഴ്നൂ		
ഴ്പ		ഴ്പു		ഴ്പൂ		
ഴ്മ 		ഴ്മു		ഴ്മൂ		
ഴ്വ		ഴ്വു		ഴ്വൂ		
ഴ്സ		ഴ്സു		ഴ്സൂ		
റ്റ		റ്റു		റ്റൂ		

----- 1 Chr matra forms --------------------------

ക 	 കു 	 കൂ 	 കൃ 	കൄ	കൢ
ഖ 	 ഖു 	 ഖൂ 	 ഖൃ 	
ഗ 	 ഗു 	 ഗൂ 	 ഗൃ 	ഗൄ
ഘ 	 ഘു 	 ഘൂ 	 ഘൃ 	ഘൄ
ങ 	 ങു 	 ങൂ 	 
ച 	 ചു 	 ചൂ 	 
ഛ 	 ഛു 	 ഛൂ 	 ഛൃ 	
ജ 	 ജു 	 ജൂ 	 ജൃ 	ജൄ
ഝ 	 ഝു 	 ഝൂ 	 ഝൃ 	ഝൄ
ഞ 	 ഞു 	 ഞൂ 	 
ട 	 ടു 	 ടൂ 	 ടൃ 	ടൄ
ഠ 	 ഠു 	 ഠൂ 	 
ഡ 	 ഡു 	 ഡൂ 	 ഡൃ 	
ഢ 	 ഢു 	 ഢൂ 	 ഢൃ 	
ണ 	 ണു 	 ണൂ 	 
ത 	 തു 	 തൂ 	 തൃ 	തൄ
ഥ 	 ഥു 	 ഥൂ 	 
ദ 	 ദു 	 ദൂ 	 ദൃ 	ദൄ
ധ 	 ധു 	 ധൂ 	 ധൃ 	ധൄ
ന 	 നു 	 നൂ 	 നൃ 	നൄ
ഩ 	 
പ 	 പു 	 പൂ 	 പൃ 	പൄ
ഫ 	 ഫു 	 ഫൂ 	 
ബ 	 ബു 	 ബൂ 	 ബൃ 	
ഭ 	 ഭു 	 ഭൂ 	 ഭൃ 	ഭൄ
മ 	 മു 	 മൂ 	 മൃ 	മൄ
യ 	 യു 	 യൂ 	 യൃ 	
ര 	 രു 	 രൂ 	 രൃ 	
ല 	 ലു 	 ലൂ 	 ലൃ 	
വ 	 വു 	 വൂ 	 വൃ 	
ശ 	 ശു 	 ശൂ 	 ശൃ 	
ഷ 	 ഷു 	 ഷൂ 	 ഷൃ 	
സ 	 സു 	 സൂ 	 സൃ 	സൄ
ഹ 	 ഹു 	 ഹൂ 	 ഹൃ 	
ള 	 ളു 	 ളൂ 	 
ഴ 	 ഴു 	 ഴൂ 	 
റ 	 റു 	 റൂ 	 

----- Dot reph forms --------------------------
ൎക്ക	ൎക്കു	ൎഖ	ൎഘ	ൎച്ച	ൎച്ചു
ൎജ	ൎജു	ൎജ്ജ	ൎജ്ജു	ൎണ	ൎണ്ണ
ൎതൃ	ൎത്ത	ൎത്തു	ൎത്തൂ	ൎത്ഥ	ൎത്സ
ൎത്സ്ന	ൎഥ	ൎദ്ദ	ൎദ്ധ	ൎദ്ര
ൎന്ന	ൎന്നു	ൎന്നൂ	ൎപ്പ	ൎപ്പു
ൎബ	ൎബ്ബ	ൎഭ	ൎമ്മ	ൎയ്യ
ൎവ	ൎവ്വ	ൎശ	ൎശ്ശ	ൎഷ
ൎസ	ൎസ്സ	ൎഹ	ൎഹു	ൎഹൂ
